
{
    "region" : "eu-central-1",
    "configuration" : "Debug",
    "framework"     : "net5.0",
    "self-contained" : false,
    "application"    : "DoctoriumDoctors",
    "environment"    : "DoctoriumDoctors-dev",
    "enable-xray"    : false,
    "enhanced-health-type" : "basic",
    "additional-options"   : "\"aws:autoscaling:launchconfiguration,SecurityGroups\"=\"sg-04d0cd0a843567d12\";\"aws:ec2:vpc,Subnets\"=\"subnet-0cea012482cfcb4a6\"",
    "solution-stack"       : "64bit Amazon Linux 2 v2.2.11 running .NET Core",
    "environment-type"     : "SingleInstance",
    "cname"                : "doctoriumdoctors-dev",
    "instance-type"        : "t2.micro",
    "key-pair"             : "EC2 Tutorial",
    "instance-profile"     : "aws-elasticbeanstalk-ec2-role",
    "service-role"         : "aws-elasticbeanstalk-service-role",
    "proxy-server"         : "nginx"
}